BDC
…
# fourth creating the regular grid of 6 values for each tuning parameters
svm_grid <- grid_regular(parameters(svm_spec_T), levels = 10)

## Warning: `parameters.model_spec()` was deprecated in tune 0.1.6.9003.
## i Please use `hardhat::extract_parameter_set_dials()` instead.
## This warning is displayed once every 8 hours.
## Call `lifecycle::last_lifecycle_warnings()` to see where this warning was
## generated.

#fifth calling the grid
svm_grid

## # A tibble: 100 x 2
##         cost    rbf_sigma
##        <dbl>        <dbl>
##  1  0.000977 0.0000000001
##  2  0.00310  0.0000000001
##  3  0.00984  0.0000000001
##  4  0.0312   0.0000000001
##  5  0.0992   0.0000000001
##  6  0.315    0.0000000001
##  7  1        0.0000000001
##  8  3.17     0.0000000001
##  9 10.1      0.0000000001
## 10 32        0.0000000001
## # i 90 more rows
…
set.seed(123)
lasso_grid <- tune_grid(
  Lasso_workflow_T,
  resamples = train_boot,
  grid = lambda_grid)

lasso_grid %>%
  collect_metrics()

## # A tibble: 100 x 7
##     penalty .metric  .estimator  mean     n std_err .config              
##       <dbl> <chr>    <chr>      <dbl> <int>   <dbl> <chr>                
##  1 1   e-10 accuracy binary     0.804    25 0.00380 Preprocessor1_Model01
##  2 1   e-10 roc_auc  binary     0.655    25 0.00848 Preprocessor1_Model01
##  3 1.60e-10 accuracy binary     0.804    25 0.00380 Preprocessor1_Model02
##  4 1.60e-10 roc_auc  binary     0.655    25 0.00848 Preprocessor1_Model02
##  5 2.56e-10 accuracy binary     0.804    25 0.00380 Preprocessor1_Model03
##  6 2.56e-10 roc_auc  binary     0.655    25 0.00848 Preprocessor1_Model03
##  7 4.09e-10 accuracy binary     0.804    25 0.00380 Preprocessor1_Model04
##  8 4.09e-10 roc_auc  binary     0.655    25 0.00848 Preprocessor1_Model04
##  9 6.55e-10 accuracy binary     0.804    25 0.00380 Preprocessor1_Model05
## 10 6.55e-10 roc_auc  binary     0.655    25 0.00848 Preprocessor1_Model05
## # i 90 more rows
…
LR_grid <- grid_regular(parameters(tune_LR), levels = 20)

LR_res<- tune_grid(
  LR_workflow_T,
  resamples = train_boot,
  grid = LR_grid)

LR_res

## # Tuning results
## # Bootstrap sampling using stratification 
## # A tibble: 25 x 4
##    splits            id          .metrics           .notes          
##    <list>            <chr>       <list>             <list>          
##  1 <split [403/154]> Bootstrap01 <tibble [800 x 6]> <tibble [0 x 3]>
##  2 <split [403/142]> Bootstrap02 <tibble [800 x 6]> <tibble [0 x 3]>
##  3 <split [403/160]> Bootstrap03 <tibble [800 x 6]> <tibble [0 x 3]>
##  4 <split [403/147]> Bootstrap04 <tibble [800 x 6]> <tibble [0 x 3]>
##  5 <split [403/163]> Bootstrap05 <tibble [800 x 6]> <tibble [0 x 3]>
##  6 <split [403/140]> Bootstrap06 <tibble [800 x 6]> <tibble [0 x 3]>
##  7 <split [403/148]> Bootstrap07 <tibble [800 x 6]> <tibble [0 x 3]>
##  8 <split [403/146]> Bootstrap08 <tibble [800 x 6]> <tibble [0 x 3]>
##  9 <split [403/153]> Bootstrap09 <tibble [800 x 6]> <tibble [0 x 3]>
## 10 <split [403/142]> Bootstrap10 <tibble [800 x 6]> <tibble [0 x 3]>
## # i 15 more rows
…
