BDC
…
# fourth creating the regular grid of 6 values for each tuning parameters
svm_grid <- grid_regular(parameters(svm_spec_T), levels = 10)

## Warning: `parameters.model_spec()` was deprecated in tune 0.1.6.9003.
## i Please use `hardhat::extract_parameter_set_dials()` instead.
## This warning is displayed once every 8 hours.
## Call `lifecycle::last_lifecycle_warnings()` to see where this warning was
## generated.

#fifth calling the grid
svm_grid

## # A tibble: 100 x 2
##         cost    rbf_sigma
##        <dbl>        <dbl>
##  1  0.000977 0.0000000001
##  2  0.00310  0.0000000001
##  3  0.00984  0.0000000001
##  4  0.0312   0.0000000001
##  5  0.0992   0.0000000001
##  6  0.315    0.0000000001
##  7  1        0.0000000001
##  8  3.17     0.0000000001
##  9 10.1      0.0000000001
## 10 32        0.0000000001
## # i 90 more rows
…
Define the Lamda grid

set.seed(123)
lamda_grid <- grid_regular(penalty(), levels = 50)
lamda_grid

## # A tibble: 50 x 1
##     penalty
##       <dbl>
##  1 1   e-10
##  2 1.60e-10
##  3 2.56e-10
##  4 4.09e-10
##  5 6.55e-10
##  6 1.05e- 9
##  7 1.68e- 9
##  8 2.68e- 9
##  9 4.29e- 9
## 10 6.87e- 9
## # i 40 more rows
…
set.seed(123)
lasso_grid <- tune_grid(
  Lasso_workflow_T,
  resamples = train_boot,
  grid = lamda_grid)

lasso_grid %>%
  collect_metrics()

## # A tibble: 100 x 7
##     penalty .metric  .estimator  mean     n std_err .config              
##       <dbl> <chr>    <chr>      <dbl> <int>   <dbl> <chr>                
##  1 1   e-10 accuracy binary     0.802    25 0.00362 Preprocessor1_Model01
##  2 1   e-10 roc_auc  binary     0.587    25 0.00996 Preprocessor1_Model01
##  3 1.60e-10 accuracy binary     0.802    25 0.00362 Preprocessor1_Model02
##  4 1.60e-10 roc_auc  binary     0.587    25 0.00996 Preprocessor1_Model02
##  5 2.56e-10 accuracy binary     0.802    25 0.00362 Preprocessor1_Model03
##  6 2.56e-10 roc_auc  binary     0.587    25 0.00996 Preprocessor1_Model03
##  7 4.09e-10 accuracy binary     0.802    25 0.00362 Preprocessor1_Model04
##  8 4.09e-10 roc_auc  binary     0.587    25 0.00996 Preprocessor1_Model04
##  9 6.55e-10 accuracy binary     0.802    25 0.00362 Preprocessor1_Model05
## 10 6.55e-10 roc_auc  binary     0.587    25 0.00996 Preprocessor1_Model05
## # i 90 more rows
…
